%!PS-ADOBE-3.0 EPSF-3.0
%%Creator: SciPlot Widget 1.36  Copyright (c) 1995 Robert W. McMullen
%%BoundingBox: 36.000000 62.205872 576.000000 657.794128
%%EndComments
/ma {moveto} bind def
/da {lineto stroke newpath} bind def
/la {lineto} bind def
/poly {closepath stroke newpath} bind def
/fpoly {closepath fill newpath} bind def
/box {1 index 0 rlineto 0 exch rlineto neg 0 rlineto closepath stroke newpath} bind def
/fbox {1 index 0 rlineto 0 exch rlineto neg 0 rlineto closepath fill newpath} bind def
/clipbox {gsave 1 index 0 rlineto 0 exch rlineto neg 0 rlineto closepath clip newpath} bind def
/unclip {grestore newpath} bind def
/cr {0 360 arc stroke newpath} bind def
/fcr {0 360 arc fill newpath} bind def
/vma {gsave moveto 90 rotate} bind def
/norm {grestore} bind def
/solid {[] 0 setdash} bind def
/dot {[.25 2] 0 setdash} bind def
/widedot {[.25 8] 0 setdash} bind def
/rgb {setrgbcolor} bind def
/font-0 {/Helvetica findfont 24 scalefont setfont} bind def
/font-1 {/Times-Roman findfont 18 scalefont setfont} bind def
/font-2 {/Times-Roman findfont 10 scalefont setfont} bind def
/font-title {/Times-Roman findfont 10.000000 scalefont setfont} bind def
0.001000 setlinewidth
newpath gsave
36.000000 62.205872 translate 0.992647 0.992647 scale
0.000000 0.000000 0.000000 rgb 41.00 94.00 ma 493.00 94.00 da
41.00 94.00 ma 41.00 588.50 da
41.00 89.00 ma 41.00 99.00 da
font-2 41.00 79.00 ma (0) show
widedot 63.60 94.00 ma 63.60 588.50 da
solid 63.60 94.00 ma 63.60 97.00 da
widedot 86.20 94.00 ma 86.20 588.50 da
solid 86.20 94.00 ma 86.20 97.00 da
widedot 108.80 94.00 ma 108.80 588.50 da
solid 108.80 94.00 ma 108.80 97.00 da
dot 131.40 94.00 ma 131.40 588.50 da
solid 131.40 89.00 ma 131.40 99.00 da
font-2 131.40 79.00 ma (2) show
widedot 154.00 94.00 ma 154.00 588.50 da
solid 154.00 94.00 ma 154.00 97.00 da
widedot 176.60 94.00 ma 176.60 588.50 da
solid 176.60 94.00 ma 176.60 97.00 da
widedot 199.20 94.00 ma 199.20 588.50 da
solid 199.20 94.00 ma 199.20 97.00 da
dot 221.80 94.00 ma 221.80 588.50 da
solid 221.80 89.00 ma 221.80 99.00 da
font-2 221.80 79.00 ma (4) show
widedot 244.40 94.00 ma 244.40 588.50 da
solid 244.40 94.00 ma 244.40 97.00 da
widedot 267.00 94.00 ma 267.00 588.50 da
solid 267.00 94.00 ma 267.00 97.00 da
widedot 289.60 94.00 ma 289.60 588.50 da
solid 289.60 94.00 ma 289.60 97.00 da
dot 312.20 94.00 ma 312.20 588.50 da
solid 312.20 89.00 ma 312.20 99.00 da
font-2 312.20 79.00 ma (6) show
widedot 334.80 94.00 ma 334.80 588.50 da
solid 334.80 94.00 ma 334.80 97.00 da
widedot 357.40 94.00 ma 357.40 588.50 da
solid 357.40 94.00 ma 357.40 97.00 da
widedot 380.00 94.00 ma 380.00 588.50 da
solid 380.00 94.00 ma 380.00 97.00 da
dot 402.60 94.00 ma 402.60 588.50 da
solid 402.60 89.00 ma 402.60 99.00 da
font-2 402.60 79.00 ma (8) show
widedot 425.20 94.00 ma 425.20 588.50 da
solid 425.20 94.00 ma 425.20 97.00 da
widedot 447.80 94.00 ma 447.80 588.50 da
solid 447.80 94.00 ma 447.80 97.00 da
widedot 470.40 94.00 ma 470.40 588.50 da
solid 470.40 94.00 ma 470.40 97.00 da
dot 493.00 94.00 ma 493.00 588.50 da
solid 493.00 89.00 ma 493.00 99.00 da
font-2 493.00 79.00 ma (10) show
46.00 94.00 ma 36.00 94.00 da
font-2 31.00 90.50 ma (0) show
widedot 41.00 109.45 ma 493.00 109.45 da
solid 41.00 109.45 ma 44.00 109.45 da
widedot 41.00 124.91 ma 493.00 124.91 da
solid 41.00 124.91 ma 44.00 124.91 da
widedot 41.00 140.36 ma 493.00 140.36 da
solid 41.00 140.36 ma 44.00 140.36 da
dot 41.00 155.81 ma 493.00 155.81 da
solid 36.00 155.81 ma 46.00 155.81 da
font-2 31.00 152.31 ma (1) show
widedot 41.00 171.27 ma 493.00 171.27 da
solid 41.00 171.27 ma 44.00 171.27 da
widedot 41.00 186.72 ma 493.00 186.72 da
solid 41.00 186.72 ma 44.00 186.72 da
widedot 41.00 202.17 ma 493.00 202.17 da
solid 41.00 202.17 ma 44.00 202.17 da
dot 41.00 217.62 ma 493.00 217.62 da
solid 36.00 217.62 ma 46.00 217.62 da
font-2 31.00 214.12 ma (2) show
widedot 41.00 233.08 ma 493.00 233.08 da
solid 41.00 233.08 ma 44.00 233.08 da
widedot 41.00 248.53 ma 493.00 248.53 da
solid 41.00 248.53 ma 44.00 248.53 da
widedot 41.00 263.98 ma 493.00 263.98 da
solid 41.00 263.98 ma 44.00 263.98 da
dot 41.00 279.44 ma 493.00 279.44 da
solid 36.00 279.44 ma 46.00 279.44 da
font-2 31.00 275.94 ma (3) show
widedot 41.00 294.89 ma 493.00 294.89 da
solid 41.00 294.89 ma 44.00 294.89 da
widedot 41.00 310.34 ma 493.00 310.34 da
solid 41.00 310.34 ma 44.00 310.34 da
widedot 41.00 325.80 ma 493.00 325.80 da
solid 41.00 325.80 ma 44.00 325.80 da
dot 41.00 341.25 ma 493.00 341.25 da
solid 36.00 341.25 ma 46.00 341.25 da
font-2 31.00 337.75 ma (4) show
widedot 41.00 356.70 ma 493.00 356.70 da
solid 41.00 356.70 ma 44.00 356.70 da
widedot 41.00 372.16 ma 493.00 372.16 da
solid 41.00 372.16 ma 44.00 372.16 da
widedot 41.00 387.61 ma 493.00 387.61 da
solid 41.00 387.61 ma 44.00 387.61 da
dot 41.00 403.06 ma 493.00 403.06 da
solid 36.00 403.06 ma 46.00 403.06 da
font-2 31.00 399.56 ma (5) show
widedot 41.00 418.52 ma 493.00 418.52 da
solid 41.00 418.52 ma 44.00 418.52 da
widedot 41.00 433.97 ma 493.00 433.97 da
solid 41.00 433.97 ma 44.00 433.97 da
widedot 41.00 449.42 ma 493.00 449.42 da
solid 41.00 449.42 ma 44.00 449.42 da
dot 41.00 464.88 ma 493.00 464.88 da
solid 36.00 464.88 ma 46.00 464.88 da
font-2 31.00 461.38 ma (6) show
widedot 41.00 480.33 ma 493.00 480.33 da
solid 41.00 480.33 ma 44.00 480.33 da
widedot 41.00 495.78 ma 493.00 495.78 da
solid 41.00 495.78 ma 44.00 495.78 da
widedot 41.00 511.23 ma 493.00 511.23 da
solid 41.00 511.23 ma 44.00 511.23 da
dot 41.00 526.69 ma 493.00 526.69 da
solid 36.00 526.69 ma 46.00 526.69 da
font-2 31.00 523.19 ma (7) show
widedot 41.00 542.14 ma 493.00 542.14 da
solid 41.00 542.14 ma 44.00 542.14 da
widedot 41.00 557.59 ma 493.00 557.59 da
solid 41.00 557.59 ma 44.00 557.59 da
widedot 41.00 573.05 ma 493.00 573.05 da
solid 41.00 573.05 ma 44.00 573.05 da
dot 41.00 588.50 ma 493.00 588.50 da
solid 36.00 588.50 ma 46.00 588.50 da
font-2 31.00 585.00 ma (8) show
font-0 5.00 5.00 ma (Real Time Test) show
font-1 241.00 54.00 ma (X Axis) show
font-1 22.00 315.25 vma (Y Axis) show norm
498.00 570.50 ma 40.00 18.00 box
501.00 579.00 ma 517.00 579.00 da
509.00 579.00 3.00 cr
font-2 520.00 575.50 ma (race) show
41.00 94.00 ma 452.00 494.50 clipbox
86.20 94.00 ma 86.20 94.00 da
86.20 94.00 ma 131.40 124.91 da
131.40 124.91 ma 176.60 279.44 da
176.60 279.44 ma 221.80 433.97 da
221.80 433.97 ma 267.00 279.44 da
267.00 279.44 ma 312.20 310.34 da
312.20 310.34 ma 357.40 526.69 da
357.40 526.69 ma 402.60 433.97 da
402.60 433.97 ma 447.80 464.88 da
447.80 464.88 ma 493.00 557.59 da
unclip
86.20 94.00 3.00 cr
131.40 124.91 3.00 cr
176.60 279.44 3.00 cr
221.80 433.97 3.00 cr
267.00 279.44 3.00 cr
312.20 310.34 3.00 cr
357.40 526.69 3.00 cr
402.60 433.97 3.00 cr
447.80 464.88 3.00 cr
493.00 557.59 3.00 cr
41.00 94.00 ma 493.00 94.00 da
41.00 94.00 ma 41.00 588.50 da
41.00 89.00 ma 41.00 99.00 da
font-2 41.00 79.00 ma (0) show
widedot 63.60 94.00 ma 63.60 588.50 da
solid 63.60 94.00 ma 63.60 97.00 da
widedot 86.20 94.00 ma 86.20 588.50 da
solid 86.20 94.00 ma 86.20 97.00 da
widedot 108.80 94.00 ma 108.80 588.50 da
solid 108.80 94.00 ma 108.80 97.00 da
dot 131.40 94.00 ma 131.40 588.50 da
solid 131.40 89.00 ma 131.40 99.00 da
font-2 131.40 79.00 ma (2) show
widedot 154.00 94.00 ma 154.00 588.50 da
solid 154.00 94.00 ma 154.00 97.00 da
widedot 176.60 94.00 ma 176.60 588.50 da
solid 176.60 94.00 ma 176.60 97.00 da
widedot 199.20 94.00 ma 199.20 588.50 da
solid 199.20 94.00 ma 199.20 97.00 da
dot 221.80 94.00 ma 221.80 588.50 da
solid 221.80 89.00 ma 221.80 99.00 da
font-2 221.80 79.00 ma (4) show
widedot 244.40 94.00 ma 244.40 588.50 da
solid 244.40 94.00 ma 244.40 97.00 da
widedot 267.00 94.00 ma 267.00 588.50 da
solid 267.00 94.00 ma 267.00 97.00 da
widedot 289.60 94.00 ma 289.60 588.50 da
solid 289.60 94.00 ma 289.60 97.00 da
dot 312.20 94.00 ma 312.20 588.50 da
solid 312.20 89.00 ma 312.20 99.00 da
font-2 312.20 79.00 ma (6) show
widedot 334.80 94.00 ma 334.80 588.50 da
solid 334.80 94.00 ma 334.80 97.00 da
widedot 357.40 94.00 ma 357.40 588.50 da
solid 357.40 94.00 ma 357.40 97.00 da
widedot 380.00 94.00 ma 380.00 588.50 da
solid 380.00 94.00 ma 380.00 97.00 da
dot 402.60 94.00 ma 402.60 588.50 da
solid 402.60 89.00 ma 402.60 99.00 da
font-2 402.60 79.00 ma (8) show
widedot 425.20 94.00 ma 425.20 588.50 da
solid 425.20 94.00 ma 425.20 97.00 da
widedot 447.80 94.00 ma 447.80 588.50 da
solid 447.80 94.00 ma 447.80 97.00 da
widedot 470.40 94.00 ma 470.40 588.50 da
solid 470.40 94.00 ma 470.40 97.00 da
dot 493.00 94.00 ma 493.00 588.50 da
solid 493.00 89.00 ma 493.00 99.00 da
font-2 493.00 79.00 ma (10) show
46.00 94.00 ma 36.00 94.00 da
font-2 31.00 90.50 ma (0) show
widedot 41.00 109.45 ma 493.00 109.45 da
solid 41.00 109.45 ma 44.00 109.45 da
widedot 41.00 124.91 ma 493.00 124.91 da
solid 41.00 124.91 ma 44.00 124.91 da
widedot 41.00 140.36 ma 493.00 140.36 da
solid 41.00 140.36 ma 44.00 140.36 da
dot 41.00 155.81 ma 493.00 155.81 da
solid 36.00 155.81 ma 46.00 155.81 da
font-2 31.00 152.31 ma (1) show
widedot 41.00 171.27 ma 493.00 171.27 da
solid 41.00 171.27 ma 44.00 171.27 da
widedot 41.00 186.72 ma 493.00 186.72 da
solid 41.00 186.72 ma 44.00 186.72 da
widedot 41.00 202.17 ma 493.00 202.17 da
solid 41.00 202.17 ma 44.00 202.17 da
dot 41.00 217.62 ma 493.00 217.62 da
solid 36.00 217.62 ma 46.00 217.62 da
font-2 31.00 214.12 ma (2) show
widedot 41.00 233.08 ma 493.00 233.08 da
solid 41.00 233.08 ma 44.00 233.08 da
widedot 41.00 248.53 ma 493.00 248.53 da
solid 41.00 248.53 ma 44.00 248.53 da
widedot 41.00 263.98 ma 493.00 263.98 da
solid 41.00 263.98 ma 44.00 263.98 da
dot 41.00 279.44 ma 493.00 279.44 da
solid 36.00 279.44 ma 46.00 279.44 da
font-2 31.00 275.94 ma (3) show
widedot 41.00 294.89 ma 493.00 294.89 da
solid 41.00 294.89 ma 44.00 294.89 da
widedot 41.00 310.34 ma 493.00 310.34 da
solid 41.00 310.34 ma 44.00 310.34 da
widedot 41.00 325.80 ma 493.00 325.80 da
solid 41.00 325.80 ma 44.00 325.80 da
dot 41.00 341.25 ma 493.00 341.25 da
solid 36.00 341.25 ma 46.00 341.25 da
font-2 31.00 337.75 ma (4) show
widedot 41.00 356.70 ma 493.00 356.70 da
solid 41.00 356.70 ma 44.00 356.70 da
widedot 41.00 372.16 ma 493.00 372.16 da
solid 41.00 372.16 ma 44.00 372.16 da
widedot 41.00 387.61 ma 493.00 387.61 da
solid 41.00 387.61 ma 44.00 387.61 da
dot 41.00 403.06 ma 493.00 403.06 da
solid 36.00 403.06 ma 46.00 403.06 da
font-2 31.00 399.56 ma (5) show
widedot 41.00 418.52 ma 493.00 418.52 da
solid 41.00 418.52 ma 44.00 418.52 da
widedot 41.00 433.97 ma 493.00 433.97 da
solid 41.00 433.97 ma 44.00 433.97 da
widedot 41.00 449.42 ma 493.00 449.42 da
solid 41.00 449.42 ma 44.00 449.42 da
dot 41.00 464.88 ma 493.00 464.88 da
solid 36.00 464.88 ma 46.00 464.88 da
font-2 31.00 461.38 ma (6) show
widedot 41.00 480.33 ma 493.00 480.33 da
solid 41.00 480.33 ma 44.00 480.33 da
widedot 41.00 495.78 ma 493.00 495.78 da
solid 41.00 495.78 ma 44.00 495.78 da
widedot 41.00 511.23 ma 493.00 511.23 da
solid 41.00 511.23 ma 44.00 511.23 da
dot 41.00 526.69 ma 493.00 526.69 da
solid 36.00 526.69 ma 46.00 526.69 da
font-2 31.00 523.19 ma (7) show
widedot 41.00 542.14 ma 493.00 542.14 da
solid 41.00 542.14 ma 44.00 542.14 da
widedot 41.00 557.59 ma 493.00 557.59 da
solid 41.00 557.59 ma 44.00 557.59 da
widedot 41.00 573.05 ma 493.00 573.05 da
solid 41.00 573.05 ma 44.00 573.05 da
dot 41.00 588.50 ma 493.00 588.50 da
solid 36.00 588.50 ma 46.00 588.50 da
font-2 31.00 585.00 ma (8) show
font-0 5.00 5.00 ma (Real Time Test) show
font-1 241.00 54.00 ma (X Axis) show
font-1 22.00 315.25 vma (Y Axis) show norm
498.00 570.50 ma 40.00 18.00 box
501.00 579.00 ma 517.00 579.00 da
509.00 579.00 3.00 cr
font-2 520.00 575.50 ma (race) show
41.00 94.00 ma 452.00 494.50 clipbox
86.20 94.00 ma 86.20 94.00 da
86.20 94.00 ma 131.40 124.91 da
131.40 124.91 ma 176.60 279.44 da
176.60 279.44 ma 221.80 433.97 da
221.80 433.97 ma 267.00 279.44 da
267.00 279.44 ma 312.20 310.34 da
312.20 310.34 ma 357.40 526.69 da
357.40 526.69 ma 402.60 433.97 da
402.60 433.97 ma 447.80 464.88 da
447.80 464.88 ma 493.00 557.59 da
unclip
86.20 94.00 3.00 cr
131.40 124.91 3.00 cr
176.60 279.44 3.00 cr
221.80 433.97 3.00 cr
267.00 279.44 3.00 cr
312.20 310.34 3.00 cr
357.40 526.69 3.00 cr
402.60 433.97 3.00 cr
447.80 464.88 3.00 cr
493.00 557.59 3.00 cr
grestore
showpage
