%!PS-ADOBE-3.0 EPSF-3.0
%%Creator: SciPlot Widget 1.36  Copyright (c) 1995 Robert W. McMullen
%%BoundingBox: 36.000000 62.205872 576.000000 657.794128
%%EndComments
/ma {moveto} bind def
/da {lineto stroke newpath} bind def
/la {lineto} bind def
/poly {closepath stroke newpath} bind def
/fpoly {closepath fill newpath} bind def
/box {1 index 0 rlineto 0 exch rlineto neg 0 rlineto closepath stroke newpath} bind def
/fbox {1 index 0 rlineto 0 exch rlineto neg 0 rlineto closepath fill newpath} bind def
/clipbox {gsave 1 index 0 rlineto 0 exch rlineto neg 0 rlineto closepath clip newpath} bind def
/unclip {grestore newpath} bind def
/cr {0 360 arc stroke newpath} bind def
/fcr {0 360 arc fill newpath} bind def
/vma {gsave moveto 90 rotate} bind def
/norm {grestore} bind def
/solid {[] 0 setdash} bind def
/dot {[.25 2] 0 setdash} bind def
/widedot {[.25 8] 0 setdash} bind def
/rgb {setrgbcolor} bind def
/font-0 {/Helvetica findfont 24 scalefont setfont} bind def
/font-1 {/Times-Roman findfont 18 scalefont setfont} bind def
/font-2 {/Times-Roman findfont 10 scalefont setfont} bind def
/font-title {/Times-Roman findfont 10.000000 scalefont setfont} bind def
0.001000 setlinewidth
newpath gsave
36.000000 62.205872 translate 0.992647 0.992647 scale
0.000000 0.000000 0.000000 rgb 31.00 50.00 ma 539.00 50.00 da
31.00 50.00 ma 31.00 595.00 da
31.00 45.00 ma 31.00 55.00 da
widedot 51.32 50.00 ma 51.32 595.00 da
solid 51.32 50.00 ma 51.32 53.00 da
widedot 71.64 50.00 ma 71.64 595.00 da
solid 71.64 50.00 ma 71.64 53.00 da
widedot 91.96 50.00 ma 91.96 595.00 da
solid 91.96 50.00 ma 91.96 53.00 da
widedot 112.28 50.00 ma 112.28 595.00 da
solid 112.28 50.00 ma 112.28 53.00 da
dot 132.60 50.00 ma 132.60 595.00 da
solid 132.60 45.00 ma 132.60 55.00 da
widedot 152.92 50.00 ma 152.92 595.00 da
solid 152.92 50.00 ma 152.92 53.00 da
widedot 173.24 50.00 ma 173.24 595.00 da
solid 173.24 50.00 ma 173.24 53.00 da
widedot 193.56 50.00 ma 193.56 595.00 da
solid 193.56 50.00 ma 193.56 53.00 da
widedot 213.88 50.00 ma 213.88 595.00 da
solid 213.88 50.00 ma 213.88 53.00 da
dot 234.20 50.00 ma 234.20 595.00 da
solid 234.20 45.00 ma 234.20 55.00 da
widedot 254.52 50.00 ma 254.52 595.00 da
solid 254.52 50.00 ma 254.52 53.00 da
widedot 274.84 50.00 ma 274.84 595.00 da
solid 274.84 50.00 ma 274.84 53.00 da
widedot 295.16 50.00 ma 295.16 595.00 da
solid 295.16 50.00 ma 295.16 53.00 da
widedot 315.48 50.00 ma 315.48 595.00 da
solid 315.48 50.00 ma 315.48 53.00 da
dot 335.80 50.00 ma 335.80 595.00 da
solid 335.80 45.00 ma 335.80 55.00 da
widedot 356.12 50.00 ma 356.12 595.00 da
solid 356.12 50.00 ma 356.12 53.00 da
widedot 376.44 50.00 ma 376.44 595.00 da
solid 376.44 50.00 ma 376.44 53.00 da
widedot 396.76 50.00 ma 396.76 595.00 da
solid 396.76 50.00 ma 396.76 53.00 da
widedot 417.08 50.00 ma 417.08 595.00 da
solid 417.08 50.00 ma 417.08 53.00 da
dot 437.40 50.00 ma 437.40 595.00 da
solid 437.40 45.00 ma 437.40 55.00 da
widedot 457.72 50.00 ma 457.72 595.00 da
solid 457.72 50.00 ma 457.72 53.00 da
widedot 478.04 50.00 ma 478.04 595.00 da
solid 478.04 50.00 ma 478.04 53.00 da
widedot 498.36 50.00 ma 498.36 595.00 da
solid 498.36 50.00 ma 498.36 53.00 da
widedot 518.68 50.00 ma 518.68 595.00 da
solid 518.68 50.00 ma 518.68 53.00 da
dot 539.00 50.00 ma 539.00 595.00 da
solid 539.00 45.00 ma 539.00 55.00 da
36.00 50.00 ma 26.00 50.00 da
widedot 31.00 69.46 ma 539.00 69.46 da
solid 31.00 69.46 ma 34.00 69.46 da
widedot 31.00 88.93 ma 539.00 88.93 da
solid 31.00 88.93 ma 34.00 88.93 da
widedot 31.00 108.39 ma 539.00 108.39 da
solid 31.00 108.39 ma 34.00 108.39 da
dot 31.00 127.86 ma 539.00 127.86 da
solid 26.00 127.86 ma 36.00 127.86 da
widedot 31.00 147.32 ma 539.00 147.32 da
solid 31.00 147.32 ma 34.00 147.32 da
widedot 31.00 166.79 ma 539.00 166.79 da
solid 31.00 166.79 ma 34.00 166.79 da
widedot 31.00 186.25 ma 539.00 186.25 da
solid 31.00 186.25 ma 34.00 186.25 da
dot 31.00 205.71 ma 539.00 205.71 da
solid 26.00 205.71 ma 36.00 205.71 da
widedot 31.00 225.18 ma 539.00 225.18 da
solid 31.00 225.18 ma 34.00 225.18 da
widedot 31.00 244.64 ma 539.00 244.64 da
solid 31.00 244.64 ma 34.00 244.64 da
widedot 31.00 264.11 ma 539.00 264.11 da
solid 31.00 264.11 ma 34.00 264.11 da
dot 31.00 283.57 ma 539.00 283.57 da
solid 26.00 283.57 ma 36.00 283.57 da
widedot 31.00 303.04 ma 539.00 303.04 da
solid 31.00 303.04 ma 34.00 303.04 da
widedot 31.00 322.50 ma 539.00 322.50 da
solid 31.00 322.50 ma 34.00 322.50 da
widedot 31.00 341.96 ma 539.00 341.96 da
solid 31.00 341.96 ma 34.00 341.96 da
dot 31.00 361.43 ma 539.00 361.43 da
solid 26.00 361.43 ma 36.00 361.43 da
widedot 31.00 380.89 ma 539.00 380.89 da
solid 31.00 380.89 ma 34.00 380.89 da
widedot 31.00 400.36 ma 539.00 400.36 da
solid 31.00 400.36 ma 34.00 400.36 da
widedot 31.00 419.82 ma 539.00 419.82 da
solid 31.00 419.82 ma 34.00 419.82 da
dot 31.00 439.29 ma 539.00 439.29 da
solid 26.00 439.29 ma 36.00 439.29 da
widedot 31.00 458.75 ma 539.00 458.75 da
solid 31.00 458.75 ma 34.00 458.75 da
widedot 31.00 478.21 ma 539.00 478.21 da
solid 31.00 478.21 ma 34.00 478.21 da
widedot 31.00 497.68 ma 539.00 497.68 da
solid 31.00 497.68 ma 34.00 497.68 da
dot 31.00 517.14 ma 539.00 517.14 da
solid 26.00 517.14 ma 36.00 517.14 da
widedot 31.00 536.61 ma 539.00 536.61 da
solid 31.00 536.61 ma 34.00 536.61 da
widedot 31.00 556.07 ma 539.00 556.07 da
solid 31.00 556.07 ma 34.00 556.07 da
widedot 31.00 575.54 ma 539.00 575.54 da
solid 31.00 575.54 ma 34.00 575.54 da
dot 31.00 595.00 ma 539.00 595.00 da
solid 26.00 595.00 ma 36.00 595.00 da
font-0 5.00 5.00 ma (Crack Growth Comparison at 100% Strain) show
font-1 22.00 251.50 vma (Crack Depth (mm)) show norm
31.00 50.00 ma 508.00 545.00 clipbox
1.000000 0.000000 0.000000 rgb 31.00 127.86 ma 31.00 127.86 da
31.00 127.86 ma 116.59 166.79 da
116.59 166.79 ma 157.37 205.71 da
157.37 205.71 ma 182.57 244.64 da
182.57 244.64 ma 201.44 283.57 da
201.44 283.57 ma 215.94 322.50 da
215.94 322.50 ma 227.28 361.43 da
227.28 361.43 ma 236.27 400.36 da
236.27 400.36 ma 243.46 439.29 da
243.46 439.29 ma 249.25 478.21 da
249.25 478.21 ma 253.59 513.96 da
253.59 513.96 ma 253.94 517.14 da
253.94 517.14 ma 257.08 548.63 da
257.08 548.63 ma 257.75 556.07 da
0.000000 0.000000 0.000000 rgb 31.00 127.86 ma 31.00 127.86 da
31.00 127.86 ma 225.05 166.79 da
225.05 166.79 ma 317.51 205.71 da
317.51 205.71 ma 366.23 244.64 da
366.23 244.64 ma 394.76 283.57 da
394.76 283.57 ma 416.68 322.50 da
416.68 322.50 ma 433.81 361.43 da
433.81 361.43 ma 447.40 400.36 da
447.40 400.36 ma 458.27 439.29 da
458.27 439.29 ma 467.02 478.21 da
467.02 478.21 ma 473.59 513.96 da
473.59 513.96 ma 474.11 517.14 da
474.11 517.14 ma 478.86 548.63 da
478.86 548.63 ma 479.88 556.07 da
unclip
1.000000 0.000000 0.000000 rgb 31.00 127.86 3.00 cr
116.59 166.79 3.00 cr
157.37 205.71 3.00 cr
182.57 244.64 3.00 cr
201.44 283.57 3.00 cr
215.94 322.50 3.00 cr
227.28 361.43 3.00 cr
236.27 400.36 3.00 cr
243.46 439.29 3.00 cr
249.25 478.21 3.00 cr
253.59 513.96 3.00 cr
253.94 517.14 3.00 cr
257.08 548.63 3.00 cr
257.75 556.07 3.00 cr
0.000000 0.000000 0.000000 rgb 31.00 130.86 ma 33.60 126.36 la 28.40 126.36 la poly
225.05 169.79 ma 227.65 165.29 la 222.45 165.29 la poly
317.51 208.71 ma 320.10 204.21 la 314.91 204.21 la poly
366.23 247.64 ma 368.82 243.14 la 363.63 243.14 la poly
394.76 286.57 ma 397.36 282.07 la 392.16 282.07 la poly
416.68 325.50 ma 419.27 321.00 la 414.08 321.00 la poly
433.81 364.43 ma 436.41 359.93 la 431.22 359.93 la poly
447.40 403.36 ma 450.00 398.86 la 444.80 398.86 la poly
458.27 442.29 ma 460.87 437.79 la 455.67 437.79 la poly
467.02 481.21 ma 469.62 476.71 la 464.43 476.71 la poly
473.59 516.96 ma 476.19 512.46 la 470.99 512.46 la poly
474.11 520.14 ma 476.71 515.64 la 471.52 515.64 la poly
478.86 551.63 ma 481.46 547.13 la 476.26 547.13 la poly
479.88 559.07 ma 482.47 554.57 la 477.28 554.57 la poly
31.00 50.00 ma 539.00 50.00 da
31.00 50.00 ma 31.00 595.00 da
31.00 45.00 ma 31.00 55.00 da
widedot 51.32 50.00 ma 51.32 595.00 da
solid 51.32 50.00 ma 51.32 53.00 da
widedot 71.64 50.00 ma 71.64 595.00 da
solid 71.64 50.00 ma 71.64 53.00 da
widedot 91.96 50.00 ma 91.96 595.00 da
solid 91.96 50.00 ma 91.96 53.00 da
widedot 112.28 50.00 ma 112.28 595.00 da
solid 112.28 50.00 ma 112.28 53.00 da
dot 132.60 50.00 ma 132.60 595.00 da
solid 132.60 45.00 ma 132.60 55.00 da
widedot 152.92 50.00 ma 152.92 595.00 da
solid 152.92 50.00 ma 152.92 53.00 da
widedot 173.24 50.00 ma 173.24 595.00 da
solid 173.24 50.00 ma 173.24 53.00 da
widedot 193.56 50.00 ma 193.56 595.00 da
solid 193.56 50.00 ma 193.56 53.00 da
widedot 213.88 50.00 ma 213.88 595.00 da
solid 213.88 50.00 ma 213.88 53.00 da
dot 234.20 50.00 ma 234.20 595.00 da
solid 234.20 45.00 ma 234.20 55.00 da
widedot 254.52 50.00 ma 254.52 595.00 da
solid 254.52 50.00 ma 254.52 53.00 da
widedot 274.84 50.00 ma 274.84 595.00 da
solid 274.84 50.00 ma 274.84 53.00 da
widedot 295.16 50.00 ma 295.16 595.00 da
solid 295.16 50.00 ma 295.16 53.00 da
widedot 315.48 50.00 ma 315.48 595.00 da
solid 315.48 50.00 ma 315.48 53.00 da
dot 335.80 50.00 ma 335.80 595.00 da
solid 335.80 45.00 ma 335.80 55.00 da
widedot 356.12 50.00 ma 356.12 595.00 da
solid 356.12 50.00 ma 356.12 53.00 da
widedot 376.44 50.00 ma 376.44 595.00 da
solid 376.44 50.00 ma 376.44 53.00 da
widedot 396.76 50.00 ma 396.76 595.00 da
solid 396.76 50.00 ma 396.76 53.00 da
widedot 417.08 50.00 ma 417.08 595.00 da
solid 417.08 50.00 ma 417.08 53.00 da
dot 437.40 50.00 ma 437.40 595.00 da
solid 437.40 45.00 ma 437.40 55.00 da
widedot 457.72 50.00 ma 457.72 595.00 da
solid 457.72 50.00 ma 457.72 53.00 da
widedot 478.04 50.00 ma 478.04 595.00 da
solid 478.04 50.00 ma 478.04 53.00 da
widedot 498.36 50.00 ma 498.36 595.00 da
solid 498.36 50.00 ma 498.36 53.00 da
widedot 518.68 50.00 ma 518.68 595.00 da
solid 518.68 50.00 ma 518.68 53.00 da
dot 539.00 50.00 ma 539.00 595.00 da
solid 539.00 45.00 ma 539.00 55.00 da
36.00 50.00 ma 26.00 50.00 da
widedot 31.00 69.46 ma 539.00 69.46 da
solid 31.00 69.46 ma 34.00 69.46 da
widedot 31.00 88.93 ma 539.00 88.93 da
solid 31.00 88.93 ma 34.00 88.93 da
widedot 31.00 108.39 ma 539.00 108.39 da
solid 31.00 108.39 ma 34.00 108.39 da
dot 31.00 127.86 ma 539.00 127.86 da
solid 26.00 127.86 ma 36.00 127.86 da
widedot 31.00 147.32 ma 539.00 147.32 da
solid 31.00 147.32 ma 34.00 147.32 da
widedot 31.00 166.79 ma 539.00 166.79 da
solid 31.00 166.79 ma 34.00 166.79 da
widedot 31.00 186.25 ma 539.00 186.25 da
solid 31.00 186.25 ma 34.00 186.25 da
dot 31.00 205.71 ma 539.00 205.71 da
solid 26.00 205.71 ma 36.00 205.71 da
widedot 31.00 225.18 ma 539.00 225.18 da
solid 31.00 225.18 ma 34.00 225.18 da
widedot 31.00 244.64 ma 539.00 244.64 da
solid 31.00 244.64 ma 34.00 244.64 da
widedot 31.00 264.11 ma 539.00 264.11 da
solid 31.00 264.11 ma 34.00 264.11 da
dot 31.00 283.57 ma 539.00 283.57 da
solid 26.00 283.57 ma 36.00 283.57 da
widedot 31.00 303.04 ma 539.00 303.04 da
solid 31.00 303.04 ma 34.00 303.04 da
widedot 31.00 322.50 ma 539.00 322.50 da
solid 31.00 322.50 ma 34.00 322.50 da
widedot 31.00 341.96 ma 539.00 341.96 da
solid 31.00 341.96 ma 34.00 341.96 da
dot 31.00 361.43 ma 539.00 361.43 da
solid 26.00 361.43 ma 36.00 361.43 da
widedot 31.00 380.89 ma 539.00 380.89 da
solid 31.00 380.89 ma 34.00 380.89 da
widedot 31.00 400.36 ma 539.00 400.36 da
solid 31.00 400.36 ma 34.00 400.36 da
widedot 31.00 419.82 ma 539.00 419.82 da
solid 31.00 419.82 ma 34.00 419.82 da
dot 31.00 439.29 ma 539.00 439.29 da
solid 26.00 439.29 ma 36.00 439.29 da
widedot 31.00 458.75 ma 539.00 458.75 da
solid 31.00 458.75 ma 34.00 458.75 da
widedot 31.00 478.21 ma 539.00 478.21 da
solid 31.00 478.21 ma 34.00 478.21 da
widedot 31.00 497.68 ma 539.00 497.68 da
solid 31.00 497.68 ma 34.00 497.68 da
dot 31.00 517.14 ma 539.00 517.14 da
solid 26.00 517.14 ma 36.00 517.14 da
widedot 31.00 536.61 ma 539.00 536.61 da
solid 31.00 536.61 ma 34.00 536.61 da
widedot 31.00 556.07 ma 539.00 556.07 da
solid 31.00 556.07 ma 34.00 556.07 da
widedot 31.00 575.54 ma 539.00 575.54 da
solid 31.00 575.54 ma 34.00 575.54 da
dot 31.00 595.00 ma 539.00 595.00 da
solid 26.00 595.00 ma 36.00 595.00 da
font-0 5.00 5.00 ma (Crack Growth Comparison at 100% Strain) show
font-1 22.00 251.50 vma (Crack Depth (mm)) show norm
31.00 50.00 ma 508.00 545.00 clipbox
1.000000 0.000000 0.000000 rgb 31.00 127.86 ma 31.00 127.86 da
31.00 127.86 ma 116.59 166.79 da
116.59 166.79 ma 157.37 205.71 da
157.37 205.71 ma 182.57 244.64 da
182.57 244.64 ma 201.44 283.57 da
201.44 283.57 ma 215.94 322.50 da
215.94 322.50 ma 227.28 361.43 da
227.28 361.43 ma 236.27 400.36 da
236.27 400.36 ma 243.46 439.29 da
243.46 439.29 ma 249.25 478.21 da
249.25 478.21 ma 253.59 513.96 da
253.59 513.96 ma 253.94 517.14 da
253.94 517.14 ma 257.08 548.63 da
257.08 548.63 ma 257.75 556.07 da
0.000000 0.000000 0.000000 rgb 31.00 127.86 ma 31.00 127.86 da
31.00 127.86 ma 225.05 166.79 da
225.05 166.79 ma 317.51 205.71 da
317.51 205.71 ma 366.23 244.64 da
366.23 244.64 ma 394.76 283.57 da
394.76 283.57 ma 416.68 322.50 da
416.68 322.50 ma 433.81 361.43 da
433.81 361.43 ma 447.40 400.36 da
447.40 400.36 ma 458.27 439.29 da
458.27 439.29 ma 467.02 478.21 da
467.02 478.21 ma 473.59 513.96 da
473.59 513.96 ma 474.11 517.14 da
474.11 517.14 ma 478.86 548.63 da
478.86 548.63 ma 479.88 556.07 da
unclip
1.000000 0.000000 0.000000 rgb 31.00 127.86 3.00 cr
116.59 166.79 3.00 cr
157.37 205.71 3.00 cr
182.57 244.64 3.00 cr
201.44 283.57 3.00 cr
215.94 322.50 3.00 cr
227.28 361.43 3.00 cr
236.27 400.36 3.00 cr
243.46 439.29 3.00 cr
249.25 478.21 3.00 cr
253.59 513.96 3.00 cr
253.94 517.14 3.00 cr
257.08 548.63 3.00 cr
257.75 556.07 3.00 cr
0.000000 0.000000 0.000000 rgb 31.00 130.86 ma 33.60 126.36 la 28.40 126.36 la poly
225.05 169.79 ma 227.65 165.29 la 222.45 165.29 la poly
317.51 208.71 ma 320.10 204.21 la 314.91 204.21 la poly
366.23 247.64 ma 368.82 243.14 la 363.63 243.14 la poly
394.76 286.57 ma 397.36 282.07 la 392.16 282.07 la poly
416.68 325.50 ma 419.27 321.00 la 414.08 321.00 la poly
433.81 364.43 ma 436.41 359.93 la 431.22 359.93 la poly
447.40 403.36 ma 450.00 398.86 la 444.80 398.86 la poly
458.27 442.29 ma 460.87 437.79 la 455.67 437.79 la poly
467.02 481.21 ma 469.62 476.71 la 464.43 476.71 la poly
473.59 516.96 ma 476.19 512.46 la 470.99 512.46 la poly
474.11 520.14 ma 476.71 515.64 la 471.52 515.64 la poly
478.86 551.63 ma 481.46 547.13 la 476.26 547.13 la poly
479.88 559.07 ma 482.47 554.57 la 477.28 554.57 la poly
31.00 50.00 ma 539.00 50.00 da
31.00 50.00 ma 31.00 595.00 da
31.00 45.00 ma 31.00 55.00 da
widedot 51.32 50.00 ma 51.32 595.00 da
solid 51.32 50.00 ma 51.32 53.00 da
widedot 71.64 50.00 ma 71.64 595.00 da
solid 71.64 50.00 ma 71.64 53.00 da
widedot 91.96 50.00 ma 91.96 595.00 da
solid 91.96 50.00 ma 91.96 53.00 da
widedot 112.28 50.00 ma 112.28 595.00 da
solid 112.28 50.00 ma 112.28 53.00 da
dot 132.60 50.00 ma 132.60 595.00 da
solid 132.60 45.00 ma 132.60 55.00 da
widedot 152.92 50.00 ma 152.92 595.00 da
solid 152.92 50.00 ma 152.92 53.00 da
widedot 173.24 50.00 ma 173.24 595.00 da
solid 173.24 50.00 ma 173.24 53.00 da
widedot 193.56 50.00 ma 193.56 595.00 da
solid 193.56 50.00 ma 193.56 53.00 da
widedot 213.88 50.00 ma 213.88 595.00 da
solid 213.88 50.00 ma 213.88 53.00 da
dot 234.20 50.00 ma 234.20 595.00 da
solid 234.20 45.00 ma 234.20 55.00 da
widedot 254.52 50.00 ma 254.52 595.00 da
solid 254.52 50.00 ma 254.52 53.00 da
widedot 274.84 50.00 ma 274.84 595.00 da
solid 274.84 50.00 ma 274.84 53.00 da
widedot 295.16 50.00 ma 295.16 595.00 da
solid 295.16 50.00 ma 295.16 53.00 da
widedot 315.48 50.00 ma 315.48 595.00 da
solid 315.48 50.00 ma 315.48 53.00 da
dot 335.80 50.00 ma 335.80 595.00 da
solid 335.80 45.00 ma 335.80 55.00 da
widedot 356.12 50.00 ma 356.12 595.00 da
solid 356.12 50.00 ma 356.12 53.00 da
widedot 376.44 50.00 ma 376.44 595.00 da
solid 376.44 50.00 ma 376.44 53.00 da
widedot 396.76 50.00 ma 396.76 595.00 da
solid 396.76 50.00 ma 396.76 53.00 da
widedot 417.08 50.00 ma 417.08 595.00 da
solid 417.08 50.00 ma 417.08 53.00 da
dot 437.40 50.00 ma 437.40 595.00 da
solid 437.40 45.00 ma 437.40 55.00 da
widedot 457.72 50.00 ma 457.72 595.00 da
solid 457.72 50.00 ma 457.72 53.00 da
widedot 478.04 50.00 ma 478.04 595.00 da
solid 478.04 50.00 ma 478.04 53.00 da
widedot 498.36 50.00 ma 498.36 595.00 da
solid 498.36 50.00 ma 498.36 53.00 da
widedot 518.68 50.00 ma 518.68 595.00 da
solid 518.68 50.00 ma 518.68 53.00 da
dot 539.00 50.00 ma 539.00 595.00 da
solid 539.00 45.00 ma 539.00 55.00 da
36.00 50.00 ma 26.00 50.00 da
widedot 31.00 69.46 ma 539.00 69.46 da
solid 31.00 69.46 ma 34.00 69.46 da
widedot 31.00 88.93 ma 539.00 88.93 da
solid 31.00 88.93 ma 34.00 88.93 da
widedot 31.00 108.39 ma 539.00 108.39 da
solid 31.00 108.39 ma 34.00 108.39 da
dot 31.00 127.86 ma 539.00 127.86 da
solid 26.00 127.86 ma 36.00 127.86 da
widedot 31.00 147.32 ma 539.00 147.32 da
solid 31.00 147.32 ma 34.00 147.32 da
widedot 31.00 166.79 ma 539.00 166.79 da
solid 31.00 166.79 ma 34.00 166.79 da
widedot 31.00 186.25 ma 539.00 186.25 da
solid 31.00 186.25 ma 34.00 186.25 da
dot 31.00 205.71 ma 539.00 205.71 da
solid 26.00 205.71 ma 36.00 205.71 da
widedot 31.00 225.18 ma 539.00 225.18 da
solid 31.00 225.18 ma 34.00 225.18 da
widedot 31.00 244.64 ma 539.00 244.64 da
solid 31.00 244.64 ma 34.00 244.64 da
widedot 31.00 264.11 ma 539.00 264.11 da
solid 31.00 264.11 ma 34.00 264.11 da
dot 31.00 283.57 ma 539.00 283.57 da
solid 26.00 283.57 ma 36.00 283.57 da
widedot 31.00 303.04 ma 539.00 303.04 da
solid 31.00 303.04 ma 34.00 303.04 da
widedot 31.00 322.50 ma 539.00 322.50 da
solid 31.00 322.50 ma 34.00 322.50 da
widedot 31.00 341.96 ma 539.00 341.96 da
solid 31.00 341.96 ma 34.00 341.96 da
dot 31.00 361.43 ma 539.00 361.43 da
solid 26.00 361.43 ma 36.00 361.43 da
widedot 31.00 380.89 ma 539.00 380.89 da
solid 31.00 380.89 ma 34.00 380.89 da
widedot 31.00 400.36 ma 539.00 400.36 da
solid 31.00 400.36 ma 34.00 400.36 da
widedot 31.00 419.82 ma 539.00 419.82 da
solid 31.00 419.82 ma 34.00 419.82 da
dot 31.00 439.29 ma 539.00 439.29 da
solid 26.00 439.29 ma 36.00 439.29 da
widedot 31.00 458.75 ma 539.00 458.75 da
solid 31.00 458.75 ma 34.00 458.75 da
widedot 31.00 478.21 ma 539.00 478.21 da
solid 31.00 478.21 ma 34.00 478.21 da
widedot 31.00 497.68 ma 539.00 497.68 da
solid 31.00 497.68 ma 34.00 497.68 da
dot 31.00 517.14 ma 539.00 517.14 da
solid 26.00 517.14 ma 36.00 517.14 da
widedot 31.00 536.61 ma 539.00 536.61 da
solid 31.00 536.61 ma 34.00 536.61 da
widedot 31.00 556.07 ma 539.00 556.07 da
solid 31.00 556.07 ma 34.00 556.07 da
widedot 31.00 575.54 ma 539.00 575.54 da
solid 31.00 575.54 ma 34.00 575.54 da
dot 31.00 595.00 ma 539.00 595.00 da
solid 26.00 595.00 ma 36.00 595.00 da
font-0 5.00 5.00 ma (Crack Growth Comparison at 100% Strain) show
font-1 22.00 251.50 vma (Crack Depth (mm)) show norm
31.00 50.00 ma 508.00 545.00 clipbox
1.000000 0.000000 0.000000 rgb 31.00 127.86 ma 31.00 127.86 da
31.00 127.86 ma 116.59 166.79 da
116.59 166.79 ma 157.37 205.71 da
157.37 205.71 ma 182.57 244.64 da
182.57 244.64 ma 201.44 283.57 da
201.44 283.57 ma 215.94 322.50 da
215.94 322.50 ma 227.28 361.43 da
227.28 361.43 ma 236.27 400.36 da
236.27 400.36 ma 243.46 439.29 da
243.46 439.29 ma 249.25 478.21 da
249.25 478.21 ma 253.59 513.96 da
253.59 513.96 ma 253.94 517.14 da
253.94 517.14 ma 257.08 548.63 da
257.08 548.63 ma 257.75 556.07 da
0.000000 0.000000 0.000000 rgb 31.00 127.86 ma 31.00 127.86 da
31.00 127.86 ma 225.05 166.79 da
225.05 166.79 ma 317.51 205.71 da
317.51 205.71 ma 366.23 244.64 da
366.23 244.64 ma 394.76 283.57 da
394.76 283.57 ma 416.68 322.50 da
416.68 322.50 ma 433.81 361.43 da
433.81 361.43 ma 447.40 400.36 da
447.40 400.36 ma 458.27 439.29 da
458.27 439.29 ma 467.02 478.21 da
467.02 478.21 ma 473.59 513.96 da
473.59 513.96 ma 474.11 517.14 da
474.11 517.14 ma 478.86 548.63 da
478.86 548.63 ma 479.88 556.07 da
unclip
1.000000 0.000000 0.000000 rgb 31.00 127.86 3.00 cr
116.59 166.79 3.00 cr
157.37 205.71 3.00 cr
182.57 244.64 3.00 cr
201.44 283.57 3.00 cr
215.94 322.50 3.00 cr
227.28 361.43 3.00 cr
236.27 400.36 3.00 cr
243.46 439.29 3.00 cr
249.25 478.21 3.00 cr
253.59 513.96 3.00 cr
253.94 517.14 3.00 cr
257.08 548.63 3.00 cr
257.75 556.07 3.00 cr
0.000000 0.000000 0.000000 rgb 31.00 130.86 ma 33.60 126.36 la 28.40 126.36 la poly
225.05 169.79 ma 227.65 165.29 la 222.45 165.29 la poly
317.51 208.71 ma 320.10 204.21 la 314.91 204.21 la poly
366.23 247.64 ma 368.82 243.14 la 363.63 243.14 la poly
394.76 286.57 ma 397.36 282.07 la 392.16 282.07 la poly
416.68 325.50 ma 419.27 321.00 la 414.08 321.00 la poly
433.81 364.43 ma 436.41 359.93 la 431.22 359.93 la poly
447.40 403.36 ma 450.00 398.86 la 444.80 398.86 la poly
458.27 442.29 ma 460.87 437.79 la 455.67 437.79 la poly
467.02 481.21 ma 469.62 476.71 la 464.43 476.71 la poly
473.59 516.96 ma 476.19 512.46 la 470.99 512.46 la poly
474.11 520.14 ma 476.71 515.64 la 471.52 515.64 la poly
478.86 551.63 ma 481.46 547.13 la 476.26 547.13 la poly
479.88 559.07 ma 482.47 554.57 la 477.28 554.57 la poly
31.00 50.00 ma 539.00 50.00 da
31.00 50.00 ma 31.00 595.00 da
31.00 45.00 ma 31.00 55.00 da
widedot 51.32 50.00 ma 51.32 595.00 da
solid 51.32 50.00 ma 51.32 53.00 da
widedot 71.64 50.00 ma 71.64 595.00 da
solid 71.64 50.00 ma 71.64 53.00 da
widedot 91.96 50.00 ma 91.96 595.00 da
solid 91.96 50.00 ma 91.96 53.00 da
widedot 112.28 50.00 ma 112.28 595.00 da
solid 112.28 50.00 ma 112.28 53.00 da
dot 132.60 50.00 ma 132.60 595.00 da
solid 132.60 45.00 ma 132.60 55.00 da
widedot 152.92 50.00 ma 152.92 595.00 da
solid 152.92 50.00 ma 152.92 53.00 da
widedot 173.24 50.00 ma 173.24 595.00 da
solid 173.24 50.00 ma 173.24 53.00 da
widedot 193.56 50.00 ma 193.56 595.00 da
solid 193.56 50.00 ma 193.56 53.00 da
widedot 213.88 50.00 ma 213.88 595.00 da
solid 213.88 50.00 ma 213.88 53.00 da
dot 234.20 50.00 ma 234.20 595.00 da
solid 234.20 45.00 ma 234.20 55.00 da
widedot 254.52 50.00 ma 254.52 595.00 da
solid 254.52 50.00 ma 254.52 53.00 da
widedot 274.84 50.00 ma 274.84 595.00 da
solid 274.84 50.00 ma 274.84 53.00 da
widedot 295.16 50.00 ma 295.16 595.00 da
solid 295.16 50.00 ma 295.16 53.00 da
widedot 315.48 50.00 ma 315.48 595.00 da
solid 315.48 50.00 ma 315.48 53.00 da
dot 335.80 50.00 ma 335.80 595.00 da
solid 335.80 45.00 ma 335.80 55.00 da
widedot 356.12 50.00 ma 356.12 595.00 da
solid 356.12 50.00 ma 356.12 53.00 da
widedot 376.44 50.00 ma 376.44 595.00 da
solid 376.44 50.00 ma 376.44 53.00 da
widedot 396.76 50.00 ma 396.76 595.00 da
solid 396.76 50.00 ma 396.76 53.00 da
widedot 417.08 50.00 ma 417.08 595.00 da
solid 417.08 50.00 ma 417.08 53.00 da
dot 437.40 50.00 ma 437.40 595.00 da
solid 437.40 45.00 ma 437.40 55.00 da
widedot 457.72 50.00 ma 457.72 595.00 da
solid 457.72 50.00 ma 457.72 53.00 da
widedot 478.04 50.00 ma 478.04 595.00 da
solid 478.04 50.00 ma 478.04 53.00 da
widedot 498.36 50.00 ma 498.36 595.00 da
solid 498.36 50.00 ma 498.36 53.00 da
widedot 518.68 50.00 ma 518.68 595.00 da
solid 518.68 50.00 ma 518.68 53.00 da
dot 539.00 50.00 ma 539.00 595.00 da
solid 539.00 45.00 ma 539.00 55.00 da
36.00 50.00 ma 26.00 50.00 da
widedot 31.00 69.46 ma 539.00 69.46 da
solid 31.00 69.46 ma 34.00 69.46 da
widedot 31.00 88.93 ma 539.00 88.93 da
solid 31.00 88.93 ma 34.00 88.93 da
widedot 31.00 108.39 ma 539.00 108.39 da
solid 31.00 108.39 ma 34.00 108.39 da
dot 31.00 127.86 ma 539.00 127.86 da
solid 26.00 127.86 ma 36.00 127.86 da
widedot 31.00 147.32 ma 539.00 147.32 da
solid 31.00 147.32 ma 34.00 147.32 da
widedot 31.00 166.79 ma 539.00 166.79 da
solid 31.00 166.79 ma 34.00 166.79 da
widedot 31.00 186.25 ma 539.00 186.25 da
solid 31.00 186.25 ma 34.00 186.25 da
dot 31.00 205.71 ma 539.00 205.71 da
solid 26.00 205.71 ma 36.00 205.71 da
widedot 31.00 225.18 ma 539.00 225.18 da
solid 31.00 225.18 ma 34.00 225.18 da
widedot 31.00 244.64 ma 539.00 244.64 da
solid 31.00 244.64 ma 34.00 244.64 da
widedot 31.00 264.11 ma 539.00 264.11 da
solid 31.00 264.11 ma 34.00 264.11 da
dot 31.00 283.57 ma 539.00 283.57 da
solid 26.00 283.57 ma 36.00 283.57 da
widedot 31.00 303.04 ma 539.00 303.04 da
solid 31.00 303.04 ma 34.00 303.04 da
widedot 31.00 322.50 ma 539.00 322.50 da
solid 31.00 322.50 ma 34.00 322.50 da
widedot 31.00 341.96 ma 539.00 341.96 da
solid 31.00 341.96 ma 34.00 341.96 da
dot 31.00 361.43 ma 539.00 361.43 da
solid 26.00 361.43 ma 36.00 361.43 da
widedot 31.00 380.89 ma 539.00 380.89 da
solid 31.00 380.89 ma 34.00 380.89 da
widedot 31.00 400.36 ma 539.00 400.36 da
solid 31.00 400.36 ma 34.00 400.36 da
widedot 31.00 419.82 ma 539.00 419.82 da
solid 31.00 419.82 ma 34.00 419.82 da
dot 31.00 439.29 ma 539.00 439.29 da
solid 26.00 439.29 ma 36.00 439.29 da
widedot 31.00 458.75 ma 539.00 458.75 da
solid 31.00 458.75 ma 34.00 458.75 da
widedot 31.00 478.21 ma 539.00 478.21 da
solid 31.00 478.21 ma 34.00 478.21 da
widedot 31.00 497.68 ma 539.00 497.68 da
solid 31.00 497.68 ma 34.00 497.68 da
dot 31.00 517.14 ma 539.00 517.14 da
solid 26.00 517.14 ma 36.00 517.14 da
widedot 31.00 536.61 ma 539.00 536.61 da
solid 31.00 536.61 ma 34.00 536.61 da
widedot 31.00 556.07 ma 539.00 556.07 da
solid 31.00 556.07 ma 34.00 556.07 da
widedot 31.00 575.54 ma 539.00 575.54 da
solid 31.00 575.54 ma 34.00 575.54 da
dot 31.00 595.00 ma 539.00 595.00 da
solid 26.00 595.00 ma 36.00 595.00 da
font-0 5.00 5.00 ma (Crack Growth Comparison at 100% Strain) show
font-1 22.00 251.50 vma (Crack Depth (mm)) show norm
31.00 50.00 ma 508.00 545.00 clipbox
1.000000 0.000000 0.000000 rgb 31.00 127.86 ma 31.00 127.86 da
31.00 127.86 ma 116.59 166.79 da
116.59 166.79 ma 157.37 205.71 da
157.37 205.71 ma 182.57 244.64 da
182.57 244.64 ma 201.44 283.57 da
201.44 283.57 ma 215.94 322.50 da
215.94 322.50 ma 227.28 361.43 da
227.28 361.43 ma 236.27 400.36 da
236.27 400.36 ma 243.46 439.29 da
243.46 439.29 ma 249.25 478.21 da
249.25 478.21 ma 253.59 513.96 da
253.59 513.96 ma 253.94 517.14 da
253.94 517.14 ma 257.08 548.63 da
257.08 548.63 ma 257.75 556.07 da
0.000000 0.000000 0.000000 rgb 31.00 127.86 ma 31.00 127.86 da
31.00 127.86 ma 225.05 166.79 da
225.05 166.79 ma 317.51 205.71 da
317.51 205.71 ma 366.23 244.64 da
366.23 244.64 ma 394.76 283.57 da
394.76 283.57 ma 416.68 322.50 da
416.68 322.50 ma 433.81 361.43 da
433.81 361.43 ma 447.40 400.36 da
447.40 400.36 ma 458.27 439.29 da
458.27 439.29 ma 467.02 478.21 da
467.02 478.21 ma 473.59 513.96 da
473.59 513.96 ma 474.11 517.14 da
474.11 517.14 ma 478.86 548.63 da
478.86 548.63 ma 479.88 556.07 da
unclip
1.000000 0.000000 0.000000 rgb 31.00 127.86 3.00 cr
116.59 166.79 3.00 cr
157.37 205.71 3.00 cr
182.57 244.64 3.00 cr
201.44 283.57 3.00 cr
215.94 322.50 3.00 cr
227.28 361.43 3.00 cr
236.27 400.36 3.00 cr
243.46 439.29 3.00 cr
249.25 478.21 3.00 cr
253.59 513.96 3.00 cr
253.94 517.14 3.00 cr
257.08 548.63 3.00 cr
257.75 556.07 3.00 cr
0.000000 0.000000 0.000000 rgb 31.00 130.86 ma 33.60 126.36 la 28.40 126.36 la poly
225.05 169.79 ma 227.65 165.29 la 222.45 165.29 la poly
317.51 208.71 ma 320.10 204.21 la 314.91 204.21 la poly
366.23 247.64 ma 368.82 243.14 la 363.63 243.14 la poly
394.76 286.57 ma 397.36 282.07 la 392.16 282.07 la poly
416.68 325.50 ma 419.27 321.00 la 414.08 321.00 la poly
433.81 364.43 ma 436.41 359.93 la 431.22 359.93 la poly
447.40 403.36 ma 450.00 398.86 la 444.80 398.86 la poly
458.27 442.29 ma 460.87 437.79 la 455.67 437.79 la poly
467.02 481.21 ma 469.62 476.71 la 464.43 476.71 la poly
473.59 516.96 ma 476.19 512.46 la 470.99 512.46 la poly
474.11 520.14 ma 476.71 515.64 la 471.52 515.64 la poly
478.86 551.63 ma 481.46 547.13 la 476.26 547.13 la poly
479.88 559.07 ma 482.47 554.57 la 477.28 554.57 la poly
grestore
showpage
